#FIG 3.2  Produced by xfig version 3.2.5b
Landscape
Center
Inches
Letter  
100.00
Single
-2
1200 2
5 1 2 1 0 7 50 -1 -1 3.000 0 1 0 0 4425.000 3825.000 4500 1500 4350 1500 3600 1650
5 1 0 1 0 7 50 -1 -1 0.000 0 1 1 0 4110.000 1837.500 2250 2625 3000 3525 3750 3825
	2 1 1.00 60.00 120.00
5 1 0 1 0 7 50 -1 -1 0.000 0 1 1 0 2340.000 4237.500 4200 3450 3450 2550 2700 2250
	2 1 1.00 60.00 120.00
1 3 0 1 0 7 50 -1 -1 0.000 1 0.0000 2248 2095 480 480 2248 2095 2623 1795
1 3 0 1 0 7 50 -1 -1 0.000 1 0.0000 4254 3929 480 480 4254 3929 4734 3929
1 3 0 1 0 0 50 -1 20 0.000 1 0.0000 4919 1169 150 150 4919 1169 5069 1169
1 3 0 1 0 0 50 -1 20 0.000 1 0.0000 2219 4844 150 150 2219 4844 2369 4844
2 2 1 1 0 7 50 -1 -1 4.000 0 0 -1 0 0 5
	 3000 1875 3600 1875 3600 1275 3000 1275 3000 1875
2 2 0 1 0 7 50 -1 -1 0.000 0 0 -1 0 0 5
	 4500 1800 5325 1800 5325 1200 4500 1200 4500 1800
2 2 0 3 0 0 51 -1 1 0.000 0 0 -1 0 0 5
	 1425 1200 5475 1200 5475 4875 1425 4875 1425 1200
2 2 0 1 0 7 50 -1 -1 0.000 0 0 -1 0 0 5
	 1800 4875 2625 4875 2625 4275 1800 4275 1800 4875
4 1 0 50 -1 0 21 0.0000 6 330 1395 4575 2775 $print(x)$\001
4 1 0 50 -1 0 26 0.0000 6 420 930 2250 2175 $l_1$\001
4 1 0 50 -1 0 26 0.0000 6 420 930 4350 4050 $l_2$\001
4 0 0 50 -1 0 20 0.0000 6 285 450 3150 1725 $x$\001
4 1 0 50 -1 0 21 0.0000 6 330 1830 2400 3975 $x := rand()$\001
4 1 0 50 -1 0 21 0.0000 6 330 825 2325 3525 $p_1$\001
4 1 0 50 -1 0 21 0.0000 6 330 825 3900 2325 $p_2$\001
4 1 0 50 -1 0 24 0.0000 6 405 990 4950 1650 $p_2$\001
4 1 0 50 -1 0 23 0.0000 6 390 990 2250 4575 $p_1$\001
