#FIG 3.2  Produced by xfig version 3.2.5b
Landscape
Center
Inches
Letter  
100.00
Single
-2
1200 2
5 1 0 1 0 7 50 -1 -1 0.000 0 1 1 0 3967.500 3459.357 4440 3034 3990 2824 3495 3034
	1 1 1.00 60.00 120.00
5 1 0 1 0 7 50 -1 -1 0.000 0 0 1 0 4019.286 2821.857 4480 3454 4030 3604 3520 3424
	1 1 1.00 60.00 120.00
5 1 0 1 0 7 50 -1 -1 0.000 0 0 1 0 4185.553 4902.520 4120 4760 4340 4930 4110 5040
	1 1 1.00 60.00 120.00
5 1 0 1 0 7 50 -1 -1 0.000 0 1 1 0 3673.715 4930.651 3740 4790 3530 4990 3760 5060
	1 1 1.00 60.00 120.00
5 1 0 1 0 7 50 -1 -1 0.000 0 1 1 0 3240.833 3400.000 3150 3280 3150 3520 3390 3420
	1 1 1.00 60.00 120.00
5 1 0 1 0 7 50 -1 -1 0.000 0 1 1 0 4703.405 3406.271 4580 3460 4800 3500 4750 3280
	1 1 1.00 60.00 120.00
5 1 0 1 0 7 50 -1 -1 0.000 0 1 1 0 6569.178 4992.395 6545 4835 6425 5060 6695 5090
	1 1 1.00 60.00 120.00
5 1 0 1 0 7 50 -1 -1 0.000 0 1 1 0 7314.772 7606.591 7775 6890 7325 6755 6905 6860
	1 1 1.00 60.00 120.00
5 1 0 1 0 7 50 -1 -1 0.000 0 0 1 0 7364.098 6283.866 7820 7070 7295 7190 6860 7040
	1 1 1.00 60.00 120.00
5 1 0 1 0 7 50 -1 -1 0.000 0 1 1 0 -110.822 4897.395 -135 4740 -255 4965 15 4995
	1 1 1.00 60.00 120.00
5 1 0 1 0 7 50 -1 -1 0.000 0 1 1 0 634.773 7511.591 1095 6795 645 6660 225 6765
	1 1 1.00 60.00 120.00
5 1 0 1 0 7 50 -1 -1 0.000 0 0 1 0 684.098 6188.866 1140 6975 615 7095 180 6945
	1 1 1.00 60.00 120.00
5 1 0 1 0 7 50 -1 -1 0.000 0 0 1 0 26.504 4239.513 -80 4640 -370 4360 -270 3950
	1 1 1.00 60.00 120.00
5 1 0 1 0 7 50 -1 -1 0.000 0 1 1 0 558.399 4537.376 1060 3710 540 3570 110 3680
	1 1 1.00 60.00 120.00
5 1 0 1 0 7 50 -1 -1 0.000 0 0 1 0 659.395 2003.541 1060 3840 550 3880 140 3810
	1 1 1.00 60.00 120.00
5 1 0 1 0 7 50 -1 -1 0.000 0 1 1 0 7218.398 4597.376 7720 3770 7200 3630 6770 3740
	1 1 1.00 60.00 120.00
5 1 0 1 0 7 50 -1 -1 0.000 0 0 1 0 7339.396 2093.541 7740 3930 7230 3970 6820 3900
	1 1 1.00 60.00 120.00
5 1 0 1 0 7 50 -1 -1 0.000 0 0 1 0 6726.504 4309.513 6620 4710 6330 4430 6430 4020
	1 1 1.00 60.00 120.00
1 4 0 1 0 7 50 -1 -1 0.000 1 1.5708 3940 4911 228 228 3712 4911 4168 4911
1 4 0 1 0 7 50 -1 -1 0.000 1 1.5708 3383 3216 228 228 3155 3216 3611 3216
1 4 0 1 0 7 50 -1 -1 0.000 1 1.5708 4517 3247 228 228 4289 3247 4745 3247
1 3 0 1 0 0 50 -1 20 0.000 1 0.0000 3949 4060 81 81 3949 4060 4030 4060
1 3 0 1 0 0 50 -1 20 0.000 1 0.0000 3962 4421 81 81 3962 4421 4043 4421
1 3 0 1 0 0 50 -1 20 0.000 1 0.0000 4002 5681 81 81 4002 5681 4083 5681
1 4 0 1 0 7 50 -1 -1 0.000 1 1.5708 7960 3834 228 228 7732 3834 8188 3834
1 4 0 1 0 7 50 -1 -1 0.000 1 1.5708 7761 4835 228 228 7533 4835 7989 4835
1 4 0 1 0 7 50 -1 -1 0.000 1 1.5708 6767 4872 228 228 6539 4872 6995 4872
1 4 0 1 0 7 50 -1 -1 0.000 1 1.5708 6585 3874 228 228 6357 3874 6813 3874
1 4 0 1 0 7 50 -1 -1 0.000 1 1.5708 7277 3038 228 228 7049 3038 7505 3038
1 3 0 1 0 0 50 -1 20 0.000 1 0.0000 8195 5495 81 81 8195 5495 8276 5495
1 3 0 1 0 0 50 -1 20 0.000 1 0.0000 7715 5495 81 81 7715 5495 7796 5495
1 3 0 1 0 0 50 -1 20 0.000 1 0.0000 6884 5498 81 81 6884 5498 6965 5498
1 3 0 1 0 0 50 -1 20 0.000 1 0.0000 6404 5498 81 81 6404 5498 6485 5498
1 4 0 1 0 7 50 -1 -1 0.000 1 1.5708 6677 6920 228 228 6449 6920 6905 6920
1 4 0 1 0 7 50 -1 -1 0.000 1 1.5708 7322 6257 228 228 7094 6257 7550 6257
1 4 0 1 0 7 50 -1 -1 0.000 1 1.5708 8000 6920 228 228 7772 6920 8228 6920
1 3 0 1 0 0 50 -1 20 0.000 1 0.0000 6379 5896 81 81 6379 5896 6460 5896
1 3 0 1 0 0 50 -1 20 0.000 1 0.0000 7699 5881 81 81 7699 5881 7780 5881
1 3 0 1 0 0 50 -1 20 0.000 1 0.0000 8194 5881 81 81 8194 5881 8275 5881
1 3 0 1 0 0 50 -1 20 0.000 1 0.0000 6881 5894 81 81 6881 5894 6962 5894
1 3 0 1 0 0 50 -1 20 0.000 1 0.0000 5901 2909 81 81 5901 2909 5982 2909
1 3 0 1 0 0 50 -1 20 0.000 1 0.0000 3907 2089 81 81 3907 2089 3988 2089
1 3 0 1 0 0 50 -1 20 0.000 1 0.0000 3919 2350 81 81 3919 2350 4000 2350
1 3 0 1 0 0 50 -1 20 0.000 1 0.0000 6515 2169 81 81 6515 2169 6596 2169
1 3 0 1 0 0 50 -1 20 0.000 1 0.0000 6517 2476 81 81 6517 2476 6598 2476
1 3 0 1 0 0 50 -1 20 0.000 1 0.0000 1489 2400 81 81 1489 2400 1570 2400
1 3 0 1 0 0 50 -1 20 0.000 1 0.0000 1875 2925 81 81 1875 2925 1956 2925
1 4 0 1 0 7 50 -1 -1 0.000 1 1.5708 1280 3739 228 228 1052 3739 1508 3739
1 4 0 1 0 7 50 -1 -1 0.000 1 1.5708 1081 4740 228 228 853 4740 1309 4740
1 4 0 1 0 7 50 -1 -1 0.000 1 1.5708 87 4777 228 228 -141 4777 315 4777
1 4 0 1 0 7 50 -1 -1 0.000 1 1.5708 -95 3779 228 228 -323 3779 133 3779
1 4 0 1 0 7 50 -1 -1 0.000 1 1.5708 597 2943 228 228 369 2943 825 2943
1 3 0 1 0 0 50 -1 20 0.000 1 0.0000 1515 5400 81 81 1515 5400 1596 5400
1 3 0 1 0 0 50 -1 20 0.000 1 0.0000 1035 5400 81 81 1035 5400 1116 5400
1 3 0 1 0 0 50 -1 20 0.000 1 0.0000 204 5403 81 81 204 5403 285 5403
1 3 0 1 0 0 50 -1 20 0.000 1 0.0000 -276 5403 81 81 -276 5403 -195 5403
1 4 0 1 0 7 50 -1 -1 0.000 1 1.5708 -3 6825 228 228 -231 6825 225 6825
1 4 0 1 0 7 50 -1 -1 0.000 1 1.5708 642 6162 228 228 414 6162 870 6162
1 4 0 1 0 7 50 -1 -1 0.000 1 1.5708 1320 6825 228 228 1092 6825 1548 6825
1 3 0 1 0 0 50 -1 20 0.000 1 0.0000 -301 5801 81 81 -301 5801 -220 5801
1 3 0 1 0 0 50 -1 20 0.000 1 0.0000 1019 5786 81 81 1019 5786 1100 5786
1 3 0 1 0 0 50 -1 20 0.000 1 0.0000 1514 5786 81 81 1514 5786 1595 5786
1 3 0 1 0 0 50 -1 20 0.000 1 0.0000 1485 2085 81 81 1485 2085 1566 2085
1 3 0 1 0 0 50 -1 20 0.000 1 0.0000 2265 2925 81 81 2265 2925 2346 2925
1 3 0 1 0 0 50 -1 20 0.000 1 0.0000 201 5799 81 81 201 5799 282 5799
1 3 0 1 0 0 50 -1 20 0.000 1 0.0000 6174 2903 81 81 6174 2903 6255 2903
1 3 0 1 0 0 50 -1 20 0.000 1 0.0000 949 2397 81 81 949 2397 1030 2397
1 3 0 1 0 0 50 -1 20 0.000 1 0.0000 950 2090 81 81 950 2090 1031 2090
1 3 0 1 0 0 50 -1 20 0.000 1 0.0000 -550 2899 81 81 -550 2899 -469 2899
1 3 0 1 0 0 50 -1 20 0.000 1 0.0000 8578 2968 81 81 8578 2968 8659 2968
1 3 0 1 0 0 50 -1 20 0.000 1 0.0000 7196 2479 81 81 7196 2479 7277 2479
1 3 0 1 0 0 50 -1 20 0.000 1 0.0000 7180 2180 81 81 7180 2180 7261 2180
2 1 0 1 0 0 50 -1 20 0.000 0 0 -1 0 0 4
	 5390 2900 5280 3010 5280 2800 5380 2910
2 2 0 1 0 7 50 -1 -1 0.000 0 0 -1 0 0 5
	 2640 2110 5320 2110 5320 5930 2640 5930 2640 2110
2 1 0 1 0 7 50 -1 -1 0.000 0 0 -1 1 0 2
	1 1 1.00 60.00 120.00
	 3615 3264 4290 3264
2 2 0 1 0 7 50 -1 -1 0.000 0 0 -1 0 0 5
	 2970 2364 5080 2364 5080 4074 2970 4074 2970 2364
2 2 0 1 0 7 50 -1 -1 0.000 0 0 -1 0 0 5
	 3000 4430 5030 4430 5030 5690 3000 5690 3000 4430
2 1 0 1 0 7 50 -1 -1 0.000 0 0 -1 0 0 2
	 3960 4090 3960 4410
2 1 0 1 0 7 50 -1 -1 0.000 0 0 -1 0 0 2
	 2290 2930 2600 2930
2 1 0 1 0 7 50 -1 -1 0.000 0 0 -1 0 0 2
	 2650 2940 2920 2940
2 1 0 1 0 0 50 -1 20 0.000 0 0 -1 0 0 4
	 2900 2940 3010 2830 3010 3040 2910 2930
2 1 0 1 0 0 50 -1 20 0.000 0 0 -1 0 0 4
	 5150 2890 5040 3000 5040 2790 5140 2900
2 1 0 1 0 7 50 -1 -1 0.000 0 0 -1 0 0 2
	 5100 2910 5310 2910
2 1 0 1 0 0 50 -1 20 0.000 0 0 -1 0 0 4
	 2580 2930 2690 2820 2690 3030 2590 2920
2 1 0 1 0 7 50 -1 -1 0.000 0 0 -1 1 0 2
	1 1 1.00 60.00 120.00
	 7460 3200 7790 3665
2 1 0 1 0 7 50 -1 -1 0.000 0 0 -1 1 0 2
	1 1 1.00 60.00 120.00
	 7955 4070 7835 4610
2 1 0 1 0 7 50 -1 -1 0.000 0 0 -1 1 0 2
	1 1 1.00 60.00 120.00
	 7535 4880 6980 4880
2 1 0 1 0 7 50 -1 -1 0.000 0 0 -1 1 0 2
	1 1 1.00 60.00 120.00
	 6725 4670 6575 4100
2 1 0 1 0 7 50 -1 -1 0.000 0 0 -1 1 0 2
	1 1 1.00 60.00 120.00
	 6590 3635 7085 3185
2 2 0 1 0 7 50 -1 -1 0.000 0 0 -1 0 0 5
	 6140 2480 8585 2480 8585 5495 6140 5495 6140 2480
2 2 0 1 0 7 50 -1 -1 0.000 0 0 -1 0 0 5
	 6155 5885 8615 5885 8615 7490 6155 7490 6155 5885
2 1 0 1 0 7 50 -1 -1 0.000 0 0 -1 1 0 2
	1 1 1.00 60.00 120.00
	 6800 6740 7145 6395
2 1 0 1 0 7 50 -1 -1 0.000 0 0 -1 1 0 2
	1 1 1.00 60.00 120.00
	 7565 6350 7895 6710
2 1 0 1 0 7 50 -1 -1 0.000 0 0 -1 0 0 2
	 6395 5570 6395 5885
2 1 0 1 0 7 50 -1 -1 0.000 0 0 -1 0 0 2
	 6890 5555 6890 5885
2 1 0 1 0 7 50 -1 -1 0.000 0 0 -1 0 0 2
	 7715 5525 7715 5825
2 1 0 1 0 7 50 -1 -1 0.000 0 0 -1 0 0 2
	 8210 5525 8210 5870
2 2 1 1 0 7 50 -1 -1 4.000 0 0 -1 0 0 5
	 8100 4645 8540 4645 8540 4895 8100 4895 8100 4645
2 1 0 1 0 7 50 -1 -1 0.000 0 0 -1 0 0 2
	 5250 2910 5890 2910
2 1 0 1 0 7 50 -1 -1 0.000 0 0 -1 0 0 2
	 5940 2910 6170 2910
2 1 0 1 0 7 50 -1 -1 0.000 0 0 -1 0 0 2
	 3920 2085 3920 2325
2 1 0 1 0 7 50 -1 -1 0.000 0 0 -1 0 0 2
	 6520 2195 6520 2435
2 1 0 1 0 7 50 -1 -1 0.000 0 0 -1 1 0 2
	1 1 1.00 60.00 120.00
	 780 3105 1110 3570
2 1 0 1 0 7 50 -1 -1 0.000 0 0 -1 1 0 2
	1 1 1.00 60.00 120.00
	 1275 3975 1155 4515
2 1 0 1 0 7 50 -1 -1 0.000 0 0 -1 1 0 2
	1 1 1.00 60.00 120.00
	 855 4785 300 4785
2 1 0 1 0 7 50 -1 -1 0.000 0 0 -1 1 0 2
	1 1 1.00 60.00 120.00
	 45 4575 -105 4005
2 1 0 1 0 7 50 -1 -1 0.000 0 0 -1 1 0 2
	1 1 1.00 60.00 120.00
	 -90 3540 405 3090
2 2 0 1 0 7 50 -1 -1 0.000 0 0 -1 0 0 5
	 -540 2385 1905 2385 1905 5400 -540 5400 -540 2385
2 2 0 1 0 7 50 -1 -1 0.000 0 0 -1 0 0 5
	 -525 5790 1935 5790 1935 7395 -525 7395 -525 5790
2 1 0 1 0 7 50 -1 -1 0.000 0 0 -1 1 0 2
	1 1 1.00 60.00 120.00
	 120 6645 465 6300
2 1 0 1 0 7 50 -1 -1 0.000 0 0 -1 1 0 2
	1 1 1.00 60.00 120.00
	 885 6255 1215 6615
2 1 0 1 0 7 50 -1 -1 0.000 0 0 -1 0 0 2
	 -285 5475 -285 5790
2 1 0 1 0 7 50 -1 -1 0.000 0 0 -1 0 0 2
	 210 5460 210 5790
2 1 0 1 0 7 50 -1 -1 0.000 0 0 -1 0 0 2
	 1035 5430 1035 5730
2 1 0 1 0 7 50 -1 -1 0.000 0 0 -1 0 0 2
	 1530 5430 1530 5775
2 2 1 1 0 7 50 -1 -1 4.000 0 0 -1 0 0 5
	 1420 4550 1860 4550 1860 4800 1420 4800 1420 4550
2 1 0 1 0 7 50 -1 -1 0.000 0 0 -1 0 0 2
	 1500 2130 1500 2370
2 1 0 1 0 7 50 -1 -1 0.000 0 0 -1 0 0 2
	 1920 2920 2230 2920
2 1 0 1 0 7 50 -1 -1 0.000 0 0 -1 0 0 4
	 1490 2060 1490 1790 3860 1790 3860 2060
2 1 0 1 0 7 50 -1 -1 0.000 0 0 -1 0 0 4
	 3960 2050 3960 1790 6490 1800 6490 2150
2 1 0 1 0 7 50 -1 -1 0.000 0 0 -1 0 0 2
	 950 2120 950 2430
2 1 0 1 0 7 50 -1 -1 0.000 0 0 -1 0 0 2
	 7190 2205 7190 2445
2 2 0 1 0 7 50 -1 -1 0.000 0 0 -1 0 0 5
	 -765 2085 2265 2085 2265 7575 -765 7575 -765 2085
2 2 0 1 0 7 50 -1 -1 0.000 0 0 -1 0 0 5
	 5915 2180 8945 2180 8945 7650 5915 7650 5915 2180
4 0 0 50 -1 0 12 0.0000 4 150 525 3735 3174 check\001
4 0 0 50 -1 0 14 0.0000 4 165 195 3840 5000 l0\001
4 0 0 50 -1 0 12 0.0000 4 150 315 3115 4950 tick\001
4 0 0 50 -1 0 12 0.0000 4 195 570 4405 4890 trigger\001
4 0 0 50 -1 0 12 0.0000 4 165 375 4425 5075 t = p\001
4 0 0 50 -1 0 12 0.0000 4 150 435 4425 5295 t := 0\001
4 0 0 50 -1 0 12 0.0000 4 165 375 3115 5135 t < p\001
4 0 0 50 -1 0 12 0.0000 4 120 345 3125 5345 t ++\001
4 0 0 50 -1 0 14 0.0000 4 165 195 3280 3314 l0\001
4 0 0 50 -1 0 14 0.0000 4 165 195 4435 3314 l1\001
4 0 0 50 -1 0 12 0.0000 4 165 525 3065 3735 report\001
4 0 0 50 -1 0 12 0.0000 4 165 525 4565 3715 report\001
4 0 0 50 -1 0 12 0.0000 4 105 420 3895 3804 exec\001
4 0 0 50 -1 0 12 0.0000 4 150 255 3840 2759 init\001
4 0 0 50 -1 0 12 0.0000 4 150 315 3855 5550 tick\001
4 0 0 50 -1 0 12 0.0000 4 195 570 4105 4580 trigger\001
4 0 0 50 -1 0 12 0.0000 4 150 525 4075 4004 check\001
4 0 0 50 -1 0 14 0.0000 4 165 195 7160 3140 l0\001
4 0 0 50 -1 0 14 0.0000 4 165 195 7655 4925 l2\001
4 0 0 50 -1 0 14 0.0000 4 165 195 7865 3935 l1\001
4 0 0 50 -1 0 14 0.0000 4 165 195 6650 4955 l3\001
4 0 0 50 -1 0 14 0.0000 4 165 195 6500 3980 l4\001
4 0 0 50 -1 0 12 0.0000 4 195 570 7640 3305 trigger\001
4 0 0 50 -1 0 12 0.0000 4 150 705 7775 3500 done:=0\001
4 0 0 50 -1 0 12 0.0000 4 120 390 7130 5075 start\001
4 0 0 50 -1 0 12 0.0000 4 150 525 7985 4445 check\001
4 0 0 50 -1 0 12 0.0000 4 165 525 6335 3350 report\001
4 0 0 50 -1 0 12 0.0000 4 150 450 6695 4340 finish\001
4 0 0 50 -1 0 12 0.0000 4 150 705 6740 4535 done:=1\001
4 0 0 50 -1 0 12 0.0000 4 120 390 8030 5345 start\001
4 0 0 50 -1 0 12 0.0000 4 105 420 6245 5390 exec\001
4 0 0 50 -1 0 12 0.0000 4 150 450 6665 5375 finish\001
4 0 0 50 -1 0 12 0.0000 4 150 255 7580 5360 fail\001
4 0 0 50 -1 0 14 0.0000 4 165 195 7895 7025 l2\001
4 0 0 50 -1 0 14 0.0000 4 165 195 6560 7040 l0\001
4 0 0 50 -1 0 14 0.0000 4 165 195 7220 6365 l1\001
4 0 0 50 -1 0 12 0.0000 4 120 390 6635 6515 start\001
4 0 0 50 -1 0 12 0.0000 4 105 420 7775 6500 exec\001
4 0 0 50 -1 0 12 0.0000 4 150 450 7135 6980 finish\001
4 0 0 50 -1 0 12 0.0000 4 150 255 7255 7415 fail\001
4 0 0 50 -1 0 12 0.0000 4 120 390 8060 6140 start\001
4 0 0 50 -1 0 12 0.0000 4 105 420 6245 6125 exec\001
4 0 0 50 -1 0 12 0.0000 4 150 450 6695 6140 finish\001
4 0 0 50 -1 0 12 0.0000 4 150 255 7610 6155 fail\001
4 0 0 50 -1 0 12 0.0000 4 150 420 8145 4840 done\001
4 0 0 50 -1 0 12 0.0000 4 105 420 6170 4835 exec\001
4 0 0 50 -1 0 12 0.0000 4 195 570 6320 2965 trigger\001
4 0 0 50 -1 0 12 0.0000 4 165 525 6325 2730 report\001
4 0 0 50 -1 0 14 0.0000 4 165 195 480 3045 l0\001
4 0 0 50 -1 0 14 0.0000 4 165 195 975 4830 l2\001
4 0 0 50 -1 0 14 0.0000 4 165 195 1185 3840 l1\001
4 0 0 50 -1 0 14 0.0000 4 165 195 -30 4860 l3\001
4 0 0 50 -1 0 14 0.0000 4 165 195 -180 3885 l4\001
4 0 0 50 -1 0 12 0.0000 4 195 570 960 3210 trigger\001
4 0 0 50 -1 0 12 0.0000 4 150 705 1095 3405 done:=0\001
4 0 0 50 -1 0 12 0.0000 4 120 390 450 4980 start\001
4 0 0 50 -1 0 12 0.0000 4 150 525 1305 4350 check\001
4 0 0 50 -1 0 12 0.0000 4 165 525 -345 3255 report\001
4 0 0 50 -1 0 12 0.0000 4 150 450 15 4245 finish\001
4 0 0 50 -1 0 12 0.0000 4 150 705 60 4440 done:=1\001
4 0 0 50 -1 0 12 0.0000 4 120 390 1350 5250 start\001
4 0 0 50 -1 0 12 0.0000 4 105 420 -435 5295 exec\001
4 0 0 50 -1 0 12 0.0000 4 150 450 -15 5280 finish\001
4 0 0 50 -1 0 12 0.0000 4 150 255 900 5265 fail\001
4 0 0 50 -1 0 14 0.0000 4 165 195 1215 6930 l2\001
4 0 0 50 -1 0 14 0.0000 4 165 195 -120 6945 l0\001
4 0 0 50 -1 0 14 0.0000 4 165 195 540 6270 l1\001
4 0 0 50 -1 0 12 0.0000 4 120 390 -45 6420 start\001
4 0 0 50 -1 0 12 0.0000 4 105 420 1095 6405 exec\001
4 0 0 50 -1 0 12 0.0000 4 150 450 455 6885 finish\001
4 0 0 50 -1 0 12 0.0000 4 150 255 575 7320 fail\001
4 0 0 50 -1 0 12 0.0000 4 120 390 1380 6045 start\001
4 0 0 50 -1 0 12 0.0000 4 105 420 -435 6030 exec\001
4 0 0 50 -1 0 12 0.0000 4 150 450 15 6045 finish\001
4 0 0 50 -1 0 12 0.0000 4 150 255 930 6060 fail\001
4 0 0 50 -1 0 12 0.0000 4 150 420 1465 4745 done\001
4 0 13 50 -1 0 12 0.0000 4 150 945 -655 2285 InitService\001
4 0 0 50 -1 0 12 0.0000 4 195 570 1840 3160 trigger\001
4 0 0 50 -1 0 12 0.0000 4 195 570 1270 2960 trigger\001
4 0 0 50 -1 0 12 0.0000 4 165 525 1605 2225 report\001
4 0 0 50 -1 0 12 0.0000 4 165 525 1305 2625 report\001
4 0 0 50 -1 0 12 0.0000 4 165 525 3385 2525 report\001
4 0 0 50 -1 0 12 0.0000 4 165 525 3345 2275 report\001
4 0 13 50 -1 0 12 0.0000 4 150 870 -445 2625 Controller\001
4 0 13 50 -1 0 12 0.0000 4 150 435 1435 7305 Task\001
4 0 13 50 -1 0 12 0.0000 4 150 870 7695 2705 Controller\001
4 0 13 50 -1 0 12 0.0000 4 150 435 8135 7405 Task\001
4 0 13 50 -1 0 12 0.0000 4 150 525 3080 5615 Timer\001
4 0 0 50 -1 0 12 0.0000 4 150 255 3050 2969 init\001
4 0 0 50 -1 0 12 0.0000 4 150 255 2690 2779 init\001
4 0 0 50 -1 0 12 0.0000 4 105 420 4675 2940 exec\001
4 0 0 50 -1 0 12 0.0000 4 105 420 5025 2740 exec\001
4 0 13 50 -1 0 12 0.0000 4 195 510 3030 3975 Proxy\001
4 0 13 50 -1 0 12 0.0000 4 195 1485 7545 2365 SetSpeedService\001
4 0 0 50 -1 0 12 0.0000 4 150 450 450 3530 abort\001
4 0 0 50 -1 0 12 0.0000 4 105 435 460 3820 error\001
4 0 0 50 -1 0 12 0.0000 4 150 255 -340 4410 fail\001
4 0 0 50 -1 0 12 0.0000 4 105 420 -520 4760 exec\001
4 0 0 50 -1 0 12 0.0000 4 150 450 7120 3590 abort\001
4 0 0 50 -1 0 12 0.0000 4 105 435 7160 3910 error\001
4 0 0 50 -1 0 12 0.0000 4 150 255 6380 4480 fail\001
4 0 0 50 -1 0 12 0.0000 4 150 450 770 2640 abort\001
4 0 0 50 -1 0 12 0.0000 4 150 450 500 2280 abort\001
4 0 0 50 -1 0 12 0.0000 4 105 435 -430 2960 error\001
4 0 0 50 -1 0 12 0.0000 4 105 435 8090 3020 error\001
4 0 0 50 -1 0 12 0.0000 4 150 450 6990 2720 abort\001
4 0 0 50 -1 0 12 0.0000 4 165 525 5985 2370 report\001
4 0 0 50 -1 0 12 0.0000 4 150 450 6740 2360 abort\001
4 0 13 50 -1 0 12 0.0000 4 195 1305 2750 5865 ProxyInterface\001
