#FIG 3.2  Produced by xfig version 3.2.5
Landscape
Center
Inches
Letter  
100.00
Single
-2
1200 2
5 1 0 1 0 7 50 -1 -1 0.000 0 1 1 0 3967.500 3459.357 4440 3034 3990 2824 3495 3034
	1 1 1.00 60.00 120.00
5 1 0 1 0 7 50 -1 -1 0.000 0 0 1 0 4019.286 2821.857 4480 3454 4030 3604 3520 3424
	1 1 1.00 60.00 120.00
5 1 0 1 0 7 50 -1 -1 0.000 0 0 1 0 4185.553 4902.520 4120 4760 4340 4930 4110 5040
	1 1 1.00 60.00 120.00
5 1 0 1 0 7 50 -1 -1 0.000 0 1 1 0 3673.715 4930.651 3740 4790 3530 4990 3760 5060
	1 1 1.00 60.00 120.00
5 1 0 1 0 7 50 -1 -1 0.000 0 1 1 0 3240.833 3400.000 3150 3280 3150 3520 3390 3420
	1 1 1.00 60.00 120.00
5 1 0 1 0 7 50 -1 -1 0.000 0 1 1 0 4703.405 3406.271 4580 3460 4800 3500 4750 3280
	1 1 1.00 60.00 120.00
5 1 0 1 0 7 50 -1 -1 0.000 0 1 1 0 -110.822 4897.395 -135 4740 -255 4965 15 4995
	1 1 1.00 60.00 120.00
5 1 0 1 0 7 50 -1 -1 0.000 0 1 1 0 634.773 7511.591 1095 6795 645 6660 225 6765
	1 1 1.00 60.00 120.00
5 1 0 1 0 7 50 -1 -1 0.000 0 0 1 0 684.098 6188.866 1140 6975 615 7095 180 6945
	1 1 1.00 60.00 120.00
5 1 0 1 0 7 50 -1 -1 0.000 0 0 1 0 26.504 4239.513 -80 4640 -370 4360 -270 3950
	1 1 1.00 60.00 120.00
5 1 0 1 0 7 50 -1 -1 0.000 0 1 1 0 558.399 4537.376 1060 3710 540 3570 110 3680
	1 1 1.00 60.00 120.00
5 1 0 1 0 7 50 -1 -1 0.000 0 0 1 0 659.395 2003.541 1060 3840 550 3880 140 3810
	1 1 1.00 60.00 120.00
1 4 0 1 0 7 50 -1 -1 0.000 1 1.5708 3940 4911 228 228 3712 4911 4168 4911
1 4 0 1 0 7 50 -1 -1 0.000 1 1.5708 3383 3216 228 228 3155 3216 3611 3216
1 4 0 1 0 7 50 -1 -1 0.000 1 1.5708 4517 3247 228 228 4289 3247 4745 3247
1 3 0 1 0 0 50 -1 20 0.000 1 0.0000 3949 4060 81 81 3949 4060 4030 4060
1 3 0 1 0 0 50 -1 20 0.000 1 0.0000 3962 4421 81 81 3962 4421 4043 4421
1 3 0 1 0 0 50 -1 20 0.000 1 0.0000 4002 5681 81 81 4002 5681 4083 5681
1 3 0 1 0 0 50 -1 20 0.000 1 0.0000 3907 2089 81 81 3907 2089 3988 2089
1 3 0 1 0 0 50 -1 20 0.000 1 0.0000 3919 2350 81 81 3919 2350 4000 2350
1 3 0 1 0 0 50 -1 20 0.000 1 0.0000 1489 2400 81 81 1489 2400 1570 2400
1 3 0 1 0 0 50 -1 20 0.000 1 0.0000 1875 2925 81 81 1875 2925 1956 2925
1 4 0 1 0 7 50 -1 -1 0.000 1 1.5708 1280 3739 228 228 1052 3739 1508 3739
1 4 0 1 0 7 50 -1 -1 0.000 1 1.5708 1081 4740 228 228 853 4740 1309 4740
1 4 0 1 0 7 50 -1 -1 0.000 1 1.5708 87 4777 228 228 -141 4777 315 4777
1 4 0 1 0 7 50 -1 -1 0.000 1 1.5708 -95 3779 228 228 -323 3779 133 3779
1 4 0 1 0 7 50 -1 -1 0.000 1 1.5708 597 2943 228 228 369 2943 825 2943
1 3 0 1 0 0 50 -1 20 0.000 1 0.0000 1515 5400 81 81 1515 5400 1596 5400
1 3 0 1 0 0 50 -1 20 0.000 1 0.0000 1035 5400 81 81 1035 5400 1116 5400
1 3 0 1 0 0 50 -1 20 0.000 1 0.0000 204 5403 81 81 204 5403 285 5403
1 3 0 1 0 0 50 -1 20 0.000 1 0.0000 -276 5403 81 81 -276 5403 -195 5403
1 4 0 1 0 7 50 -1 -1 0.000 1 1.5708 -3 6825 228 228 -231 6825 225 6825
1 4 0 1 0 7 50 -1 -1 0.000 1 1.5708 642 6162 228 228 414 6162 870 6162
1 4 0 1 0 7 50 -1 -1 0.000 1 1.5708 1320 6825 228 228 1092 6825 1548 6825
1 3 0 1 0 0 50 -1 20 0.000 1 0.0000 -301 5801 81 81 -301 5801 -220 5801
1 3 0 1 0 0 50 -1 20 0.000 1 0.0000 1019 5786 81 81 1019 5786 1100 5786
1 3 0 1 0 0 50 -1 20 0.000 1 0.0000 1514 5786 81 81 1514 5786 1595 5786
1 3 0 1 0 0 50 -1 20 0.000 1 0.0000 1485 2085 81 81 1485 2085 1566 2085
1 3 0 1 0 0 50 -1 20 0.000 1 0.0000 2265 2925 81 81 2265 2925 2346 2925
1 3 0 1 0 0 50 -1 20 0.000 1 0.0000 201 5799 81 81 201 5799 282 5799
1 3 0 1 0 0 50 -1 20 0.000 1 0.0000 949 2397 81 81 949 2397 1030 2397
1 3 0 1 0 0 50 -1 20 0.000 1 0.0000 950 2090 81 81 950 2090 1031 2090
1 3 0 1 0 0 50 -1 20 0.000 1 0.0000 -550 2899 81 81 -550 2899 -469 2899
2 1 0 1 0 0 50 -1 20 0.000 0 0 -1 0 0 4
	 5390 2900 5280 3010 5280 2800 5380 2910
2 2 0 1 0 7 50 -1 -1 0.000 0 0 -1 0 0 5
	 2640 2110 5320 2110 5320 5930 2640 5930 2640 2110
2 1 0 1 0 7 50 -1 -1 0.000 0 0 -1 1 0 2
	1 1 1.00 60.00 120.00
	 3615 3264 4290 3264
2 2 0 1 0 7 50 -1 -1 0.000 0 0 -1 0 0 5
	 2970 2364 5080 2364 5080 4074 2970 4074 2970 2364
2 2 0 1 0 7 50 -1 -1 0.000 0 0 -1 0 0 5
	 3000 4430 5030 4430 5030 5690 3000 5690 3000 4430
2 1 0 1 0 7 50 -1 -1 0.000 0 0 -1 0 0 2
	 3960 4090 3960 4410
2 1 0 1 0 7 50 -1 -1 0.000 0 0 -1 0 0 2
	 2290 2930 2600 2930
2 1 0 1 0 7 50 -1 -1 0.000 0 0 -1 0 0 2
	 2650 2940 2920 2940
2 1 0 1 0 0 50 -1 20 0.000 0 0 -1 0 0 4
	 2900 2940 3010 2830 3010 3040 2910 2930
2 1 0 1 0 0 50 -1 20 0.000 0 0 -1 0 0 4
	 5150 2890 5040 3000 5040 2790 5140 2900
2 1 0 1 0 7 50 -1 -1 0.000 0 0 -1 0 0 2
	 5100 2910 5310 2910
2 1 0 1 0 0 50 -1 20 0.000 0 0 -1 0 0 4
	 2580 2930 2690 2820 2690 3030 2590 2920
2 1 0 1 0 7 50 -1 -1 0.000 0 0 -1 0 0 2
	 3920 2085 3920 2325
2 1 0 1 0 7 50 -1 -1 0.000 0 0 -1 1 0 2
	1 1 1.00 60.00 120.00
	 780 3105 1110 3570
2 1 0 1 0 7 50 -1 -1 0.000 0 0 -1 1 0 2
	1 1 1.00 60.00 120.00
	 1275 3975 1155 4515
2 1 0 1 0 7 50 -1 -1 0.000 0 0 -1 1 0 2
	1 1 1.00 60.00 120.00
	 855 4785 300 4785
2 1 0 1 0 7 50 -1 -1 0.000 0 0 -1 1 0 2
	1 1 1.00 60.00 120.00
	 45 4575 -105 4005
2 1 0 1 0 7 50 -1 -1 0.000 0 0 -1 1 0 2
	1 1 1.00 60.00 120.00
	 -90 3540 405 3090
2 2 0 1 0 7 50 -1 -1 0.000 0 0 -1 0 0 5
	 -765 2085 2265 2085 2265 7755 -765 7755 -765 2085
2 2 0 1 0 7 50 -1 -1 0.000 0 0 -1 0 0 5
	 -540 2385 1905 2385 1905 5400 -540 5400 -540 2385
2 2 0 1 0 7 50 -1 -1 0.000 0 0 -1 0 0 5
	 -525 5790 1935 5790 1935 7395 -525 7395 -525 5790
2 1 0 1 0 7 50 -1 -1 0.000 0 0 -1 1 0 2
	1 1 1.00 60.00 120.00
	 120 6645 465 6300
2 1 0 1 0 7 50 -1 -1 0.000 0 0 -1 1 0 2
	1 1 1.00 60.00 120.00
	 885 6255 1215 6615
2 1 0 1 0 7 50 -1 -1 0.000 0 0 -1 0 0 2
	 -285 5475 -285 5790
2 1 0 1 0 7 50 -1 -1 0.000 0 0 -1 0 0 2
	 210 5460 210 5790
2 1 0 1 0 7 50 -1 -1 0.000 0 0 -1 0 0 2
	 1035 5430 1035 5730
2 1 0 1 0 7 50 -1 -1 0.000 0 0 -1 0 0 2
	 1530 5430 1530 5775
2 2 1 1 0 7 50 -1 -1 4.000 0 0 -1 0 0 5
	 1420 4550 1860 4550 1860 4800 1420 4800 1420 4550
2 1 0 1 0 7 50 -1 -1 0.000 0 0 -1 0 0 2
	 1500 2130 1500 2370
2 1 0 1 0 7 50 -1 -1 0.000 0 0 -1 0 0 2
	 1920 2920 2230 2920
2 1 0 1 0 7 50 -1 -1 0.000 0 0 -1 0 0 4
	 1490 2060 1490 1790 3860 1790 3860 2060
2 1 0 1 0 7 50 -1 -1 0.000 0 0 -1 0 0 2
	 950 2120 950 2430
4 0 0 50 -1 0 12 0.0000 4 135 480 3735 3174 check\001
4 0 0 50 -1 0 14 0.0000 4 165 180 3840 5000 l0\001
4 0 0 50 -1 0 12 0.0000 4 135 315 3115 4950 tick\001
4 0 0 50 -1 0 12 0.0000 4 180 540 4405 4890 trigger\001
4 0 0 50 -1 0 12 0.0000 4 165 360 4425 5075 t = p\001
4 0 0 50 -1 0 12 0.0000 4 135 420 4425 5295 t := 0\001
4 0 0 50 -1 0 12 0.0000 4 165 360 3115 5135 t < p\001
4 0 0 50 -1 0 12 0.0000 4 120 315 3125 5345 t ++\001
4 0 0 50 -1 0 14 0.0000 4 165 180 3280 3314 l0\001
4 0 0 50 -1 0 14 0.0000 4 165 180 4435 3314 l1\001
4 0 0 50 -1 0 12 0.0000 4 165 480 3065 3735 report\001
4 0 0 50 -1 0 12 0.0000 4 165 480 4565 3715 report\001
4 0 0 50 -1 0 12 0.0000 4 90 375 3895 3804 exec\001
4 0 0 50 -1 0 12 0.0000 4 135 285 3840 2759 init\001
4 0 0 50 -1 0 12 0.0000 4 135 315 3855 5550 tick\001
4 0 0 50 -1 0 12 0.0000 4 180 540 4105 4580 trigger\001
4 0 0 50 -1 0 12 0.0000 4 135 480 4075 4004 check\001
4 0 0 50 -1 0 14 0.0000 4 165 180 480 3045 l0\001
4 0 0 50 -1 0 14 0.0000 4 165 180 975 4830 l2\001
4 0 0 50 -1 0 14 0.0000 4 165 180 1185 3840 l1\001
4 0 0 50 -1 0 14 0.0000 4 165 180 -30 4860 l3\001
4 0 0 50 -1 0 14 0.0000 4 165 180 -180 3885 l4\001
4 0 0 50 -1 0 12 0.0000 4 180 540 960 3210 trigger\001
4 0 0 50 -1 0 12 0.0000 4 135 675 1095 3405 done:=0\001
4 0 0 50 -1 0 12 0.0000 4 120 345 450 4980 start\001
4 0 0 50 -1 0 12 0.0000 4 135 480 1305 4350 check\001
4 0 0 50 -1 0 12 0.0000 4 165 480 -345 3255 report\001
4 0 0 50 -1 0 12 0.0000 4 135 465 15 4245 finish\001
4 0 0 50 -1 0 12 0.0000 4 135 675 60 4440 done:=1\001
4 0 0 50 -1 0 12 0.0000 4 120 345 1350 5250 start\001
4 0 0 50 -1 0 12 0.0000 4 90 375 -435 5295 exec\001
4 0 0 50 -1 0 12 0.0000 4 135 465 -15 5280 finish\001
4 0 0 50 -1 0 12 0.0000 4 135 270 900 5265 fail\001
4 0 0 50 -1 0 14 0.0000 4 165 180 1215 6930 l2\001
4 0 0 50 -1 0 14 0.0000 4 165 180 -120 6945 l0\001
4 0 0 50 -1 0 14 0.0000 4 165 180 540 6270 l1\001
4 0 0 50 -1 0 12 0.0000 4 120 345 -45 6420 start\001
4 0 0 50 -1 0 12 0.0000 4 90 375 1095 6405 exec\001
4 0 0 50 -1 0 12 0.0000 4 135 465 455 6885 finish\001
4 0 0 50 -1 0 12 0.0000 4 135 270 575 7320 fail\001
4 0 0 50 -1 0 12 0.0000 4 120 345 1380 6045 start\001
4 0 0 50 -1 0 12 0.0000 4 90 375 -435 6030 exec\001
4 0 0 50 -1 0 12 0.0000 4 135 465 15 6045 finish\001
4 0 0 50 -1 0 12 0.0000 4 135 270 930 6060 fail\001
4 0 0 50 -1 0 12 0.0000 4 135 405 1465 4745 done\001
4 0 13 50 -1 0 12 0.0000 4 135 885 -655 2285 InitService\001
4 0 0 50 -1 0 12 0.0000 4 180 540 1840 3160 trigger\001
4 0 0 50 -1 0 12 0.0000 4 180 540 1270 2960 trigger\001
4 0 0 50 -1 0 12 0.0000 4 165 480 1605 2225 report\001
4 0 0 50 -1 0 12 0.0000 4 165 480 1305 2625 report\001
4 0 0 50 -1 0 12 0.0000 4 165 480 3385 2525 report\001
4 0 0 50 -1 0 12 0.0000 4 165 480 3345 2275 report\001
4 0 13 50 -1 0 12 0.0000 4 135 840 -445 2625 Controller\001
4 0 13 50 -1 0 12 0.0000 4 135 390 1435 7305 Task\001
4 0 13 50 -1 0 12 0.0000 4 135 480 3080 5615 Timer\001
4 0 0 50 -1 0 12 0.0000 4 135 285 3050 2969 init\001
4 0 0 50 -1 0 12 0.0000 4 135 285 2690 2779 init\001
4 0 0 50 -1 0 12 0.0000 4 90 375 4675 2940 exec\001
4 0 0 50 -1 0 12 0.0000 4 90 375 5025 2740 exec\001
4 0 13 50 -1 0 12 0.0000 4 180 480 3030 3975 Proxy\001
4 0 13 50 -1 0 12 0.0000 4 180 1080 2750 5865 ProxyService\001
4 0 0 50 -1 0 12 0.0000 4 135 420 450 3530 abort\001
4 0 0 50 -1 0 12 0.0000 4 90 375 460 3820 error\001
4 0 0 50 -1 0 12 0.0000 4 135 270 -340 4410 fail\001
4 0 0 50 -1 0 12 0.0000 4 90 375 -520 4760 exec\001
4 0 0 50 -1 0 12 0.0000 4 135 420 770 2640 abort\001
4 0 0 50 -1 0 12 0.0000 4 135 420 500 2280 abort\001
4 0 0 50 -1 0 12 0.0000 4 90 375 -430 2960 error\001
