#FIG 3.2  Produced by xfig version 3.2.5b
Landscape
Center
Inches
Letter  
100.00
Single
-2
1200 2
5 1 0 1 0 7 50 -1 -1 0.000 0 1 1 0 3832.500 3590.357 4305 3165 3855 2955 3360 3165
	1 1 1.00 60.00 120.00
5 1 0 1 0 7 50 -1 -1 0.000 0 0 1 0 3889.286 3047.857 4350 3680 3900 3830 3390 3650
	1 1 1.00 60.00 120.00
1 4 0 1 0 7 50 -1 -1 0.000 1 1.5708 4462 3413 286 286 4350 3675 4575 3150
1 3 0 1 0 0 50 -1 20 0.000 1 0.0000 2969 4355 81 81 2969 4355 3050 4355
1 3 0 1 0 0 50 -1 20 0.000 1 0.0000 7924 2440 81 81 7924 2440 8005 2440
1 3 0 1 0 0 50 -1 20 0.000 1 0.0000 7884 4749 81 81 7884 4749 7965 4749
1 4 0 1 0 7 50 -1 -1 0.000 1 1.5708 52 3998 286 286 -60 4260 165 3735
1 3 0 1 0 0 50 -1 20 0.000 1 0.0000 1489 2400 81 81 1489 2400 1570 2400
1 3 0 1 0 0 50 -1 20 0.000 1 0.0000 1449 4709 81 81 1449 4709 1530 4709
1 4 0 1 0 7 50 -1 -1 0.000 1 1.5708 727 2873 286 286 615 3135 840 2610
1 4 0 1 0 7 50 -1 -1 0.000 1 1.5708 1319 4034 286 286 1207 4296 1432 3771
1 3 0 1 0 0 50 -1 20 0.000 1 0.0000 1875 2925 81 81 1875 2925 1956 2925
1 3 0 1 0 0 50 -1 20 0.000 1 0.0000 5925 2925 81 81 5925 2925 6006 2925
1 4 0 1 0 7 50 -1 -1 0.000 1 1.5708 3262 3413 286 286 3150 3675 3375 3150
1 4 0 1 0 7 50 -1 -1 0.000 1 1.5708 6487 4038 286 286 6375 4300 6600 3775
1 4 0 1 0 7 50 -1 -1 0.000 1 1.5708 7754 4074 286 286 7642 4336 7867 3811
1 4 0 1 0 7 50 -1 -1 0.000 1 1.5708 7162 2913 286 286 7050 3175 7275 2650
2 1 0 1 0 7 50 -1 -1 0.000 0 0 -1 1 0 2
	1 1 1.00 60.00 120.00
	 3525 3450 4200 3450
2 1 0 1 0 7 50 -1 -1 0.000 0 0 -1 0 0 2
	 1830 2940 2590 2940
2 1 0 1 0 7 50 -1 -1 0.000 0 0 -1 1 0 2
	1 1 1.00 60.00 120.00
	 6765 4060 7455 4060
2 1 0 1 0 7 50 -1 -1 0.000 0 0 -1 1 0 2
	1 1 1.00 60.00 120.00
	 7620 3820 7320 3160
2 1 0 1 0 7 50 -1 -1 0.000 0 0 -1 1 0 2
	1 1 1.00 60.00 120.00
	 7005 3160 6630 3805
2 2 0 1 0 7 50 -1 -1 0.000 0 0 -1 0 0 5
	 2625 4350 2625 2550 5325 2550 5325 4350 2625 4350
2 1 0 1 0 0 50 -1 20 0.000 0 0 -1 0 0 4
	 5390 2900 5280 3010 5280 2800 5380 2910
2 1 0 1 0 0 50 -1 20 0.000 0 0 -1 0 0 4
	 2560 2950 2670 2840 2670 3050 2570 2940
2 1 0 1 0 7 50 -1 -1 0.000 0 0 -1 0 0 2
	 5370 2910 6010 2910
2 1 0 1 0 7 50 -1 -1 0.000 0 0 -1 1 0 2
	1 1 1.00 60.00 120.00
	 330 4020 1020 4020
2 1 0 1 0 7 50 -1 -1 0.000 0 0 -1 1 0 2
	1 1 1.00 60.00 120.00
	 1185 3780 885 3120
2 1 0 1 0 7 50 -1 -1 0.000 0 0 -1 1 0 2
	1 1 1.00 60.00 120.00
	 570 3120 195 3765
2 2 1 1 0 7 50 -1 -1 4.000 0 0 -1 0 0 5
	 -10 4390 430 4390 430 4640 -10 4640 -10 4390
2 2 1 1 0 7 50 -1 -1 4.000 0 0 -1 0 0 5
	 6320 4425 6760 4425 6760 4675 6320 4675 6320 4425
2 2 0 1 0 7 50 -1 -1 0.000 0 0 -1 0 0 5
	 -450 2415 1875 2415 1875 4710 -450 4710 -450 2415
2 2 0 1 0 7 50 -1 -1 0.000 0 0 -1 0 0 5
	 5925 2455 8235 2455 8235 4750 5925 4750 5925 2455
4 0 0 50 -1 0 12 0.0000 4 150 525 3645 3360 check\001
4 0 0 50 -1 0 12 0.0000 4 150 255 3720 2865 init\001
4 0 0 50 -1 0 12 0.0000 4 105 420 3675 4080 exec\001
4 0 0 50 -1 0 12 0.0000 4 150 255 2740 2995 init\001
4 0 0 50 -1 0 12 0.0000 4 150 525 2755 4200 check\001
4 0 0 50 -1 0 12 0.0000 4 120 390 6945 4270 start\001
4 0 0 50 -1 0 12 0.0000 4 120 390 7765 2690 start\001
4 0 0 50 -1 0 12 0.0000 4 150 450 7715 4585 finish\001
4 0 0 50 -1 0 12 0.0000 4 120 390 510 4230 start\001
4 0 0 50 -1 0 12 0.0000 4 195 570 1190 2980 trigger\001
4 0 0 50 -1 0 12 0.0000 4 120 390 1330 2650 start\001
4 0 0 50 -1 0 12 0.0000 4 150 450 1280 4545 finish\001
4 0 0 50 -1 0 12 0.0000 4 150 420 25 4565 done\001
4 0 0 50 -1 0 12 0.0000 4 150 420 6325 4625 done\001
4 0 0 50 -1 0 14 0.0000 4 165 195 615 2955 l0\001
4 0 0 50 -1 0 14 0.0000 4 165 195 -60 4110 l1\001
4 0 0 50 -1 0 14 0.0000 4 165 195 1215 4125 l2\001
4 0 13 50 -1 0 12 0.0000 4 150 1110 5925 2625 ExecService\001
4 0 13 50 -1 0 12 0.0000 4 195 510 4800 4275 Proxy\001
4 0 13 50 -1 0 12 0.0000 4 150 945 -375 2625 InitService\001
4 0 0 50 -1 0 14 0.0000 4 165 195 3150 3450 l0\001
4 0 0 50 -1 0 14 0.0000 4 165 195 4425 3450 l1\001
4 0 0 50 -1 0 14 0.0000 4 165 195 6375 4125 l1\001
4 0 0 50 -1 0 14 0.0000 4 165 195 7650 4125 l2\001
4 0 0 50 -1 0 14 0.0000 4 165 195 7050 3000 l0\001
4 0 0 50 -1 0 12 0.0000 4 195 570 -300 3300 trigger\001
4 0 0 50 -1 0 12 0.0000 4 150 705 -375 3525 done:=0\001
4 0 0 50 -1 0 12 0.0000 4 150 450 1200 3375 finish\001
4 0 0 50 -1 0 12 0.0000 4 150 705 1125 3600 done:=1\001
4 0 0 50 -1 0 12 0.0000 4 195 570 6150 3375 trigger\001
4 0 0 50 -1 0 12 0.0000 4 150 705 6000 3600 done:=0\001
4 0 0 50 -1 0 12 0.0000 4 195 570 6075 3000 trigger\001
4 0 0 50 -1 0 12 0.0000 4 105 420 4875 3000 exec\001
4 0 0 50 -1 0 12 0.0000 4 150 450 7575 3375 finish\001
4 0 0 50 -1 0 12 0.0000 4 150 705 7575 3525 done:=1\001
