#FIG 3.2  Produced by xfig version 3.2.5b
Landscape
Center
Inches
Letter  
100.00
Single
-2
1200 2
6 2400 1650 3600 2400
2 1 1 1 0 7 50 -1 -1 4.000 0 0 -1 1 0 2
	1 1 1.00 90.00 120.00
	 3000 2025 3000 2400
2 4 0 1 0 17 52 -1 32 0.000 0 0 7 0 0 5
	 3600 2025 2400 2025 2400 1650 3600 1650 3600 2025
4 1 0 50 -1 0 12 0.0000 4 150 1080 3000 1875 Connections\001
-6
6 2850 1275 3075 1575
2 2 0 1 4 7 50 -1 -1 0.000 0 0 -1 0 0 5
	 2850 1275 3075 1275 3075 1575 2850 1575 2850 1275
4 0 4 50 -1 0 12 0.0000 4 150 105 2925 1500 4\001
-6
6 3000 2625 5625 3375
2 1 0 1 0 17 50 -1 20 0.000 0 0 -1 0 0 4
	 4650 3150 4725 3225 4800 3150 4650 3150
2 1 0 1 17 7 50 -1 -1 0.000 0 0 -1 0 0 3
	 3000 3375 4725 3375 4725 3225
2 2 0 1 0 7 50 -1 -1 0.000 0 0 -1 0 0 5
	 4425 3150 5625 3150 5625 2625 4425 2625 4425 3150
4 0 0 50 -1 0 13 0.0000 4 150 1065 4500 2925 BIP Monitor\001
-6
6 1875 3150 3000 3375
2 1 0 1 17 7 50 -1 -1 0.000 0 0 -1 0 0 2
	 2250 3150 2250 3375
2 1 0 1 17 17 50 -1 -1 0.000 0 0 -1 0 0 4
	 1875 3150 1875 3375 3000 3375 3000 3150
-6
6 1350 2550 3150 3150
6 1800 3075 2325 3150
2 1 0 1 0 17 50 -1 20 0.000 0 0 -1 0 0 4
	 1800 3075 1875 3150 1950 3075 1800 3075
2 1 0 1 0 17 50 -1 20 0.000 0 0 -1 0 0 4
	 2175 3075 2250 3150 2325 3075 2175 3075
-6
6 1350 2550 3150 3075
6 1425 2700 3150 3075
6 1425 2700 3150 3075
1 3 0 1 0 0 50 -1 20 0.000 1 0.0000 2175 2775 60 60 2175 2775 2235 2775
1 3 0 1 0 0 50 -1 20 0.000 1 0.0000 2325 2775 60 60 2325 2775 2385 2775
1 3 0 1 0 0 50 -1 20 0.000 1 0.0000 1500 2775 60 60 1500 2775 1560 2775
1 3 0 1 0 0 50 -1 20 0.000 1 0.0000 1875 2775 60 60 1875 2775 1935 2775
1 3 0 1 0 0 50 -1 20 0.000 1 0.0000 2625 2775 60 60 2625 2775 2685 2775
1 3 0 1 0 0 50 -1 20 0.000 1 0.0000 3000 2775 60 60 3000 2775 3060 2775
2 2 0 1 0 17 51 -1 32 0.000 0 0 -1 0 0 5
	 2850 2775 3150 2775 3150 3075 2850 3075 2850 2775
-6
-6
6 1350 2550 3000 3075
6 1500 2550 2175 3075
2 1 0 1 0 7 50 -1 -1 0.000 0 0 -1 0 0 4
	 1500 2775 1500 2550 2175 2550 2175 2850
2 2 0 1 0 17 51 -1 32 0.000 0 0 -1 0 0 5
	 1725 2775 2025 2775 2025 3075 1725 3075 1725 2775
-6
6 1350 2550 3000 3075
6 1350 2550 3000 3075
2 2 0 1 0 17 51 -1 32 0.000 0 0 -1 0 0 5
	 2100 2775 2400 2775 2400 3075 2100 3075 2100 2775
2 1 0 1 0 7 50 -1 -1 0.000 0 0 -1 0 0 2
	 1875 2775 1875 2550
2 1 0 1 0 7 50 -1 -1 0.000 0 0 -1 0 0 4
	 2325 2775 2325 2550 3000 2550 3000 2775
2 1 0 1 0 7 50 -1 -1 0.000 0 0 -1 0 0 2
	 2625 2775 2625 2550
2 2 0 1 0 7 50 -1 -1 0.000 0 0 -1 0 0 5
	 1350 2775 1650 2775 1650 3075 1350 3075 1350 2775
-6
2 2 0 1 0 7 50 -1 -1 0.000 0 0 -1 0 0 5
	 2475 2775 2775 2775 2775 3075 2475 3075 2475 2775
-6
-6
-6
2 1 0 1 0 17 50 -1 20 0.000 0 0 -1 0 0 4
	 2925 3075 3000 3150 3075 3075 2925 3075
-6
6 5025 1500 7125 2325
1 3 0 1 0 0 50 -1 20 0.000 1 0.0000 6000 1875 60 60 6000 1875 6060 1875
1 3 0 1 0 0 50 -1 20 0.000 1 0.0000 6150 1875 60 60 6150 1875 6210 1875
1 3 0 1 0 0 50 -1 20 0.000 1 0.0000 5325 1875 60 60 5325 1875 5385 1875
1 3 0 1 0 0 50 -1 20 0.000 1 0.0000 5700 1875 60 60 5700 1875 5760 1875
1 3 0 1 0 0 50 -1 20 0.000 1 0.0000 6450 1875 60 60 6450 1875 6510 1875
1 3 0 1 0 0 50 -1 20 0.000 1 0.0000 6825 1875 60 60 6825 1875 6885 1875
2 2 0 1 0 17 51 -1 32 0.000 0 0 -1 0 0 5
	 5925 1875 6225 1875 6225 2175 5925 2175 5925 1875
2 1 0 1 0 7 50 -1 -1 0.000 0 0 -1 0 0 4
	 5325 1875 5325 1650 6000 1650 6000 1950
2 1 0 1 0 7 50 -1 -1 0.000 0 0 -1 0 0 2
	 5700 1875 5700 1650
2 1 0 1 0 7 50 -1 -1 0.000 0 0 -1 0 0 4
	 6150 1875 6150 1650 6825 1650 6825 1875
2 1 0 1 0 7 50 -1 -1 0.000 0 0 -1 0 0 2
	 6450 1875 6450 1650
2 2 0 2 0 7 50 -1 -1 0.000 0 0 -1 0 0 5
	 5100 2250 7050 2250 7050 1575 5100 1575 5100 2250
2 2 0 1 0 7 50 -1 -1 0.000 0 0 -1 0 0 5
	 5175 1875 5475 1875 5475 2175 5175 2175 5175 1875
2 2 0 1 0 17 51 -1 32 0.000 0 0 -1 0 0 5
	 5550 1875 5850 1875 5850 2175 5550 2175 5550 1875
2 2 0 1 0 7 50 -1 -1 0.000 0 0 -1 0 0 5
	 6300 1875 6600 1875 6600 2175 6300 2175 6300 1875
2 2 0 1 0 17 51 -1 32 0.000 0 0 -1 0 0 5
	 6675 1875 6975 1875 6975 2175 6675 2175 6675 1875
-6
6 6825 900 7050 1200
2 2 0 1 4 7 50 -1 -1 0.000 0 0 -1 0 0 5
	 6825 900 7050 900 7050 1200 6825 1200 6825 900
4 0 4 50 -1 0 12 0.0000 4 150 105 6900 1125 2\001
-6
6 0 750 1200 1200
2 4 0 1 0 17 52 -1 32 0.000 0 0 8 0 0 5
	 1200 1200 0 1200 0 750 1200 750 1200 1200
4 1 0 50 -1 0 12 0.0000 4 150 690 600 1125 Monitor\001
4 1 0 50 -1 0 12 0.0000 4 195 690 600 975 Building\001
-6
6 1350 825 1575 1125
2 2 0 1 4 7 50 -1 -1 0.000 0 0 -1 0 0 5
	 1350 825 1575 825 1575 1125 1350 1125 1350 825
4 0 4 50 -1 0 12 0.0000 4 150 105 1425 1050 3\001
-6
6 2175 300 2400 600
2 2 0 1 4 7 50 -1 -1 0.000 0 0 -1 0 0 5
	 2175 300 2400 300 2400 600 2175 600 2175 300
4 0 4 50 -1 0 12 0.0000 4 150 105 2250 525 1\001
-6
6 5025 -375 7125 450
6 5025 -375 7125 450
6 5175 -75 5475 300
1 3 0 1 0 0 50 -1 20 0.000 1 0.0000 5325 0 60 60 5325 0 5385 0
2 2 0 1 0 7 50 -1 -1 0.000 0 0 -1 0 0 5
	 5175 0 5475 0 5475 300 5175 300 5175 0
-6
6 5550 -75 5850 300
1 3 0 1 0 0 50 -1 20 0.000 1 0.0000 5700 0 60 60 5700 0 5760 0
2 2 0 1 0 7 50 -1 -1 0.000 0 0 -1 0 0 5
	 5550 0 5850 0 5850 300 5550 300 5550 0
-6
6 6300 -75 6600 300
1 3 0 1 0 0 50 -1 20 0.000 1 0.0000 6450 0 60 60 6450 0 6510 0
2 2 0 1 0 7 50 -1 -1 0.000 0 0 -1 0 0 5
	 6300 0 6600 0 6600 300 6300 300 6300 0
-6
6 6675 -75 6975 300
1 3 0 1 0 0 50 -1 20 0.000 1 0.0000 6825 0 60 60 6825 0 6885 0
2 2 0 1 0 7 50 -1 -1 0.000 0 0 -1 0 0 5
	 6675 0 6975 0 6975 300 6675 300 6675 0
-6
1 3 0 1 0 0 50 -1 20 0.000 1 0.0000 6000 0 60 60 6000 0 6060 0
1 3 0 1 0 0 50 -1 20 0.000 1 0.0000 6150 0 60 60 6150 0 6210 0
2 2 0 1 0 7 50 -1 -1 0.000 0 0 -1 0 0 5
	 5925 0 6225 0 6225 300 5925 300 5925 0
2 1 0 1 0 7 50 -1 -1 0.000 0 0 -1 0 0 4
	 5325 0 5325 -225 6000 -225 6000 75
2 1 0 1 0 7 50 -1 -1 0.000 0 0 -1 0 0 2
	 5700 0 5700 -225
2 1 0 1 0 7 50 -1 -1 0.000 0 0 -1 0 0 4
	 6150 0 6150 -225 6825 -225 6825 0
2 1 0 1 0 7 50 -1 -1 0.000 0 0 -1 0 0 2
	 6450 0 6450 -225
2 2 0 2 0 7 50 -1 -1 0.000 0 0 -1 0 0 5
	 5100 375 7050 375 7050 -300 5100 -300 5100 375
-6
-6
6 1725 -150 2925 225
2 4 0 1 0 17 52 -1 32 0.000 0 0 7 0 0 5
	 2925 225 1725 225 1725 -150 2925 -150 2925 225
4 1 0 50 -1 0 12 0.0000 4 150 900 2325 75 Extraction\001
-6
1 3 0 1 0 0 50 -1 20 0.000 1 0.0000 540 2175 60 60 540 2175 600 2175
1 3 0 1 0 17 49 -1 20 0.000 1 0.0000 5400 3150 60 60 5400 3150 5460 3150
1 3 0 1 0 17 49 -1 20 0.000 1 0.0000 4725 3165 60 60 4725 3165 4785 3165
2 2 0 1 0 7 50 -1 -1 0.000 0 0 -1 0 0 5
	 0 2100 1200 2100 1200 1650 0 1650 0 2100
2 1 1 1 0 7 50 -1 -1 4.000 0 0 -1 1 0 2
	1 1 1.00 90.00 120.00
	 1200 1875 2400 1875
2 1 1 1 0 7 50 -1 -1 4.000 0 0 -1 1 0 2
	1 1 1.00 90.00 120.00
	 5100 1875 3600 1875
2 1 0 1 17 7 50 -1 -1 0.000 0 0 -1 0 0 2
	 5400 3150 5400 3375
2 2 0 2 0 7 50 -1 -1 0.000 0 0 -1 0 0 5
	 0 2400 6150 2400 6150 3525 0 3525 0 2400
2 1 1 1 0 7 50 -1 -1 4.000 0 0 -1 1 0 2
	1 1 1.00 90.00 120.00
	 6075 345 6075 825
2 4 0 1 0 17 52 -1 32 0.000 0 0 7 0 0 5
	 6750 1222 5400 1222 5400 825 6750 825 6750 1222
2 1 1 1 0 7 50 -1 -1 4.000 0 0 -1 1 0 2
	1 1 1.00 90.00 120.00
	 6075 1200 6075 1560
2 1 1 1 0 7 50 -1 -1 4.000 0 0 -1 1 0 3
	1 1 1.00 90.00 120.00
	 4125 324 4125 1050 5400 1050
2 1 1 1 0 7 50 -1 -1 4.000 0 0 -1 1 0 2
	1 1 1.00 90.00 120.00
	 600 1200 600 1680
2 1 1 1 0 7 50 -1 -1 4.000 0 0 -1 1 0 2
	1 1 1.00 90.00 120.00
	 600 300 600 720
2 1 0 1 0 7 50 -1 20 0.000 0 0 -1 0 0 3
	 4500 -300 4500 -150 4650 -150
2 1 0 1 0 7 50 -1 20 0.000 0 0 -1 0 0 3
	 1125 -300 1125 -150 1275 -150
2 1 0 1 0 7 50 -1 -1 0.000 0 0 -1 0 0 7
	 3600 -300 4500 -300 4650 -150 4650 300 3375 300 3375 -300
	 3675 -300
2 1 1 1 0 7 50 -1 -1 4.000 0 0 -1 1 0 2
	1 1 1.00 90.00 120.00
	 2940 0 3360 0
2 1 1 1 0 7 50 -1 -1 4.000 0 0 -1 1 0 2
	1 1 1.00 90.00 120.00
	 1320 0 1740 0
2 1 0 1 0 7 50 -1 -1 0.000 0 0 -1 0 0 7
	 225 -300 1125 -300 1275 -150 1275 300 0 300 0 -300
	 300 -300
4 0 0 50 -1 0 13 0.0000 4 150 1065 75 1950 BIP Monitor\001
4 0 4 50 -1 0 12 0.0000 6 210 3270 150 3450 $\\gamma_1 > \\gamma_3, \\gamma_4$\001
4 0 0 50 -1 0 12 0.0000 6 210 1125 1200 2625 $\\gamma_3$\001
4 0 0 50 -1 0 12 0.0000 6 210 1125 3075 2625 $\\gamma_4$\001
4 0 0 50 -1 0 12 0.0000 6 210 1125 3750 3300 $\\gamma_1$\001
4 0 0 50 -1 0 10 0.0000 6 165 420 4800 3375 $p^m$\001
4 0 0 50 -1 0 12 0.0000 6 210 1125 5100 3450 $\\gamma_2$\001
4 0 0 50 -1 0 10 0.0000 6 165 420 3075 3225 $p^m$\001
4 0 0 50 -1 0 10 0.0000 6 165 795 5475 3300 $p_{intern}$\001
4 0 0 50 -1 0 10 0.0000 6 165 420 2325 3225 $p^m$\001
4 0 0 50 -1 0 10 0.0000 6 165 420 1575 3225 $p^m$\001
4 0 4 50 -1 0 12 0.0000 6 210 3225 150 3225 $\\gamma_2 > \\gamma_3,\\gamma_4$\001
4 1 0 50 -1 0 12 0.0000 4 150 645 6075 975 Atomic\001
4 1 0 50 -1 0 12 0.0000 4 150 1335 6075 1125 Transformation\001
4 1 0 50 -1 0 11 0.0000 4 180 945 3975 -150 Components\001
4 1 0 50 -1 0 11 0.0000 4 135 840 3975 225 To Monitor\001
4 1 0 50 -1 0 11 0.0000 4 135 735 3975 30 Variables\001
4 1 0 50 -1 0 11 0.0000 4 135 675 600 -75 Abstract\001
4 1 0 50 -1 0 11 0.0000 4 135 600 375 150 Monitor\001
4 1 0 50 -1 0 11 0.0000 4 180 600 975 150 (.XML)\001
